{
  "metadata": {
    "changelog_uri": "https://github.com/mattheworiordan/capybara-screenshot/blob/master/CHANGELOG.md",
    "bug_tracker_uri": "https://github.com/mattheworiordan/capybara-screenshot/issues",
    "source_code_uri": "https://github.com/mattheworiordan/capybara-screenshot/tree/v1.0.26",
    "documentation_uri": "https://www.rubydoc.info/gems/capybara-screenshot/1.0.26"
  },
  "project_uri": "https://rubygems.org/gems/capybara-screenshot",
  "gem_uri": "https://rubygems.org/gems/capybara-screenshot-1.0.26.gem",
  "homepage_uri": "http://github.com/mattheworiordan/capybara-screenshot",
  "wiki_uri": null,
  "documentation_uri": "https://www.rubydoc.info/gems/capybara-screenshot/1.0.26",
  "mailing_list_uri": null,
  "source_code_uri": "https://github.com/mattheworiordan/capybara-screenshot/tree/v1.0.26",
  "bug_tracker_uri": "https://github.com/mattheworiordan/capybara-screenshot/issues",
  "changelog_uri": "https://github.com/mattheworiordan/capybara-screenshot/blob/master/CHANGELOG.md",
  "funding_uri": null
}