{
  "metadata": {
  },
  "project_uri": "https://rubygems.org/gems/marcel",
  "gem_uri": "https://rubygems.org/gems/marcel-1.0.2.gem",
  "homepage_uri": "https://github.com/rails/marcel",
  "wiki_uri": null,
  "documentation_uri": "https://www.rubydoc.info/gems/marcel/1.0.2",
  "mailing_list_uri": null,
  "source_code_uri": null,
  "bug_tracker_uri": null,
  "changelog_uri": null,
  "funding_uri": null
}