{
  "metadata": {
  },
  "project_uri": "https://rubygems.org/gems/proc_to_ast",
  "gem_uri": "https://rubygems.org/gems/proc_to_ast-0.1.0.gem",
  "homepage_uri": "https://github.com/joker1007/proc_to_ast",
  "wiki_uri": null,
  "documentation_uri": "https://www.rubydoc.info/gems/proc_to_ast/0.1.0",
  "mailing_list_uri": null,
  "source_code_uri": null,
  "bug_tracker_uri": null,
  "changelog_uri": null,
  "funding_uri": null
}