{
  "metadata": {
    "wiki_uri": "https://github.com/djberg96/sys-filesystem/wiki",
    "homepage_uri": "https://github.com/djberg96/sys-filesystem",
    "changelog_uri": "https://github.com/djberg96/sys-filesystem/blob/main/CHANGES.md",
    "bug_tracker_uri": "https://github.com/djberg96/sys-filesystem/issues",
    "source_code_uri": "https://github.com/djberg96/sys-filesystem",
    "documentation_uri": "https://github.com/djberg96/sys-filesystem/wiki"
  },
  "project_uri": "https://rubygems.org/gems/sys-filesystem",
  "gem_uri": "https://rubygems.org/gems/sys-filesystem-1.4.3.gem",
  "homepage_uri": "https://github.com/djberg96/sys-filesystem",
  "wiki_uri": "https://github.com/djberg96/sys-filesystem/wiki",
  "documentation_uri": "https://github.com/djberg96/sys-filesystem/wiki",
  "mailing_list_uri": null,
  "source_code_uri": "https://github.com/djberg96/sys-filesystem",
  "bug_tracker_uri": "https://github.com/djberg96/sys-filesystem/issues",
  "changelog_uri": "https://github.com/djberg96/sys-filesystem/blob/main/CHANGES.md",
  "funding_uri": null
}