{
  "metadata": {
  },
  "project_uri": "https://rubygems.org/gems/state_machines-activemodel",
  "gem_uri": "https://rubygems.org/gems/state_machines-activemodel-0.8.0.gem",
  "homepage_uri": "https://github.com/state-machines/state_machines-activemodel",
  "wiki_uri": null,
  "documentation_uri": "https://www.rubydoc.info/gems/state_machines-activemodel/0.8.0",
  "mailing_list_uri": null,
  "source_code_uri": null,
  "bug_tracker_uri": null,
  "changelog_uri": null,
  "funding_uri": null
}