{
  "metadata": {
    "homepage_uri": "https://docs.rubocop.org/rubocop-rails/",
    "changelog_uri": "https://github.com/rubocop/rubocop-rails/blob/master/CHANGELOG.md",
    "bug_tracker_uri": "https://github.com/rubocop/rubocop-rails/issues",
    "source_code_uri": "https://github.com/rubocop/rubocop-rails/",
    "documentation_uri": "https://docs.rubocop.org/rubocop-rails/2.15/",
    "rubygems_mfa_required": "true"
  },
  "project_uri": "https://rubygems.org/gems/rubocop-rails",
  "gem_uri": "https://rubygems.org/gems/rubocop-rails-2.15.2.gem",
  "homepage_uri": "https://docs.rubocop.org/rubocop-rails/",
  "wiki_uri": null,
  "documentation_uri": "https://docs.rubocop.org/rubocop-rails/2.15/",
  "mailing_list_uri": null,
  "source_code_uri": "https://github.com/rubocop/rubocop-rails/",
  "bug_tracker_uri": "https://github.com/rubocop/rubocop-rails/issues",
  "changelog_uri": "https://github.com/rubocop/rubocop-rails/blob/master/CHANGELOG.md",
  "funding_uri": null
}