{
  "metadata": {
  },
  "project_uri": "https://rubygems.org/gems/pry-rails",
  "gem_uri": "https://rubygems.org/gems/pry-rails-0.3.9.gem",
  "homepage_uri": "https://github.com/rweng/pry-rails",
  "wiki_uri": null,
  "documentation_uri": "https://www.rubydoc.info/gems/pry-rails/0.3.9",
  "mailing_list_uri": null,
  "source_code_uri": null,
  "bug_tracker_uri": null,
  "changelog_uri": null,
  "funding_uri": null
}