{
  "metadata": {
  },
  "project_uri": "https://rubygems.org/gems/filelock",
  "gem_uri": "https://rubygems.org/gems/filelock-1.1.1.gem",
  "homepage_uri": "http://github.com/sheerun/filelock",
  "wiki_uri": null,
  "documentation_uri": "https://www.rubydoc.info/gems/filelock/1.1.1",
  "mailing_list_uri": null,
  "source_code_uri": null,
  "bug_tracker_uri": null,
  "changelog_uri": null,
  "funding_uri": null
}