{
  "metadata": {
    "homepage_uri": "https://github.com/cedarcode/openssl-signature_algorithm",
    "changelog_uri": "https://github.com/cedarcode/openssl-signature_algorithm/blob/master/CHANGELOG.md",
    "source_code_uri": "https://github.com/cedarcode/openssl-signature_algorithm"
  },
  "project_uri": "https://rubygems.org/gems/openssl-signature_algorithm",
  "gem_uri": "https://rubygems.org/gems/openssl-signature_algorithm-1.2.1.gem",
  "homepage_uri": "https://github.com/cedarcode/openssl-signature_algorithm",
  "wiki_uri": null,
  "documentation_uri": null,
  "mailing_list_uri": null,
  "source_code_uri": "https://github.com/cedarcode/openssl-signature_algorithm",
  "bug_tracker_uri": null,
  "changelog_uri": "https://github.com/cedarcode/openssl-signature_algorithm/blob/master/CHANGELOG.md",
  "funding_uri": null
}