{
  "metadata": {
  },
  "project_uri": "https://rubygems.org/gems/memoist",
  "gem_uri": "https://rubygems.org/gems/memoist-0.16.2.gem",
  "homepage_uri": "https://github.com/matthewrudy/memoist",
  "wiki_uri": null,
  "documentation_uri": "https://www.rubydoc.info/gems/memoist/0.16.2",
  "mailing_list_uri": null,
  "source_code_uri": null,
  "bug_tracker_uri": null,
  "changelog_uri": null,
  "funding_uri": null
}