{
  "metadata": {
    "homepage_uri": "https://github.com/lostisland/faraday-em_synchrony",
    "changelog_uri": "https://github.com/lostisland/faraday-em_synchrony",
    "source_code_uri": "https://github.com/lostisland/faraday-em_synchrony"
  },
  "project_uri": "https://rubygems.org/gems/faraday-em_synchrony",
  "gem_uri": "https://rubygems.org/gems/faraday-em_synchrony-1.0.0.gem",
  "homepage_uri": "https://github.com/lostisland/faraday-em_synchrony",
  "wiki_uri": null,
  "documentation_uri": null,
  "mailing_list_uri": null,
  "source_code_uri": "https://github.com/lostisland/faraday-em_synchrony",
  "bug_tracker_uri": null,
  "changelog_uri": "https://github.com/lostisland/faraday-em_synchrony",
  "funding_uri": null
}