{
  "metadata": {
  },
  "project_uri": "https://rubygems.org/gems/omniauth",
  "gem_uri": "https://rubygems.org/gems/omniauth-2.1.0.gem",
  "homepage_uri": "https://github.com/omniauth/omniauth",
  "wiki_uri": null,
  "documentation_uri": "https://www.rubydoc.info/gems/omniauth/2.1.0",
  "mailing_list_uri": null,
  "source_code_uri": null,
  "bug_tracker_uri": null,
  "changelog_uri": null,
  "funding_uri": null
}