{
  "metadata": {
  },
  "project_uri": "https://rubygems.org/gems/binding_ninja",
  "gem_uri": "https://rubygems.org/gems/binding_ninja-0.2.3.gem",
  "homepage_uri": "https://github.com/joker1007/binding_ninja",
  "wiki_uri": null,
  "documentation_uri": "https://www.rubydoc.info/gems/binding_ninja/0.2.3",
  "mailing_list_uri": null,
  "source_code_uri": null,
  "bug_tracker_uri": null,
  "changelog_uri": null,
  "funding_uri": null
}