{
  "metadata": {
  },
  "project_uri": "https://rubygems.org/gems/gettext",
  "gem_uri": "https://rubygems.org/gems/gettext-3.4.3.gem",
  "homepage_uri": "https://ruby-gettext.github.io/",
  "wiki_uri": null,
  "documentation_uri": "https://www.rubydoc.info/gems/gettext/3.4.3",
  "mailing_list_uri": null,
  "source_code_uri": null,
  "bug_tracker_uri": null,
  "changelog_uri": null,
  "funding_uri": null
}