{
  "metadata": {
  },
  "project_uri": "https://rubygems.org/gems/net-ntp",
  "gem_uri": "https://rubygems.org/gems/net-ntp-2.1.3.gem",
  "homepage_uri": "http://github.com/zencoder/net-ntp",
  "wiki_uri": null,
  "documentation_uri": "https://www.rubydoc.info/gems/net-ntp/2.1.3",
  "mailing_list_uri": null,
  "source_code_uri": null,
  "bug_tracker_uri": null,
  "changelog_uri": null,
  "funding_uri": null
}