{
  "metadata": {
  },
  "project_uri": "https://rubygems.org/gems/rubypants",
  "gem_uri": "https://rubygems.org/gems/rubypants-0.7.1.gem",
  "homepage_uri": "https://github.com/jmcnevin/rubypants",
  "wiki_uri": "",
  "documentation_uri": "https://www.rubydoc.info/gems/rubypants/0.7.1",
  "mailing_list_uri": "",
  "source_code_uri": "https://github.com/jmcnevin/rubypants",
  "bug_tracker_uri": "",
  "changelog_uri": null,
  "funding_uri": null
}