{
  "metadata": {
  },
  "project_uri": "https://rubygems.org/gems/responders",
  "gem_uri": "https://rubygems.org/gems/responders-3.0.1.gem",
  "homepage_uri": "https://github.com/heartcombo/responders",
  "wiki_uri": null,
  "documentation_uri": "https://www.rubydoc.info/gems/responders/3.0.1",
  "mailing_list_uri": null,
  "source_code_uri": null,
  "bug_tracker_uri": null,
  "changelog_uri": null,
  "funding_uri": null
}