{
  "metadata": {
  },
  "project_uri": "https://rubygems.org/gems/gitlab_chronic_duration",
  "gem_uri": "https://rubygems.org/gems/gitlab_chronic_duration-0.10.6.2.gem",
  "homepage_uri": "https://gitlab.com/gitlab-org/gitlab-chronic-duration",
  "wiki_uri": null,
  "documentation_uri": "https://www.rubydoc.info/gems/gitlab_chronic_duration/0.10.6.2",
  "mailing_list_uri": null,
  "source_code_uri": null,
  "bug_tracker_uri": null,
  "changelog_uri": null,
  "funding_uri": null
}