{
  "metadata": {
    "homepage_uri": "https://github.com/seattlerb/ruby_parser",
    "bug_tracker_uri": "https://github.com/seattlerb/ruby_parser/issues"
  },
  "project_uri": "https://rubygems.org/gems/ruby_parser",
  "gem_uri": "https://rubygems.org/gems/ruby_parser-3.19.1.gem",
  "homepage_uri": "https://github.com/seattlerb/ruby_parser",
  "wiki_uri": null,
  "documentation_uri": null,
  "mailing_list_uri": null,
  "source_code_uri": null,
  "bug_tracker_uri": "https://github.com/seattlerb/ruby_parser/issues",
  "changelog_uri": null,
  "funding_uri": null
}