{
  "metadata": {
    "homepage_uri": "https://github.com/getsentry/sentry-ruby",
    "changelog_uri": "https://github.com/getsentry/sentry-ruby/blob/master/CHANGELOG.md",
    "source_code_uri": "https://github.com/getsentry/sentry-ruby"
  },
  "project_uri": "https://rubygems.org/gems/sentry-rails",
  "gem_uri": "https://rubygems.org/gems/sentry-rails-5.4.2.gem",
  "homepage_uri": "https://github.com/getsentry/sentry-ruby",
  "wiki_uri": null,
  "documentation_uri": null,
  "mailing_list_uri": null,
  "source_code_uri": "https://github.com/getsentry/sentry-ruby",
  "bug_tracker_uri": null,
  "changelog_uri": "https://github.com/getsentry/sentry-ruby/blob/master/CHANGELOG.md",
  "funding_uri": null
}