{
  "metadata": {
  },
  "project_uri": "https://rubygems.org/gems/builder",
  "gem_uri": "https://rubygems.org/gems/builder-3.2.4.gem",
  "homepage_uri": "http://onestepback.org",
  "wiki_uri": "",
  "documentation_uri": "https://github.com/jimweirich/builder",
  "mailing_list_uri": "",
  "source_code_uri": "https://github.com/jimweirich/builder",
  "bug_tracker_uri": "https://github.com/jimweirich/builder/issues",
  "changelog_uri": null,
  "funding_uri": null
}