{
  "metadata": {
    "changelog_uri": "https://github.com/DatabaseCleaner/database_cleaner/blob/master/History.rdoc"
  },
  "project_uri": "https://rubygems.org/gems/database_cleaner",
  "gem_uri": "https://rubygems.org/gems/database_cleaner-2.0.1.gem",
  "homepage_uri": "https://github.com/DatabaseCleaner/database_cleaner",
  "wiki_uri": null,
  "documentation_uri": null,
  "mailing_list_uri": null,
  "source_code_uri": null,
  "bug_tracker_uri": null,
  "changelog_uri": "https://github.com/DatabaseCleaner/database_cleaner/blob/master/History.rdoc",
  "funding_uri": null
}