{
  "metadata": {
    "changelog_uri": "https://github.com/ManageIQ/optimist/blob/master/History.txt",
    "bug_tracker_uri": "https://github.com/ManageIQ/optimist/issues",
    "source_code_uri": "https://github.com/ManageIQ/optimist/"
  },
  "project_uri": "https://rubygems.org/gems/optimist",
  "gem_uri": "https://rubygems.org/gems/optimist-3.0.1.gem",
  "homepage_uri": "http://manageiq.github.io/optimist/",
  "wiki_uri": null,
  "documentation_uri": null,
  "mailing_list_uri": null,
  "source_code_uri": "https://github.com/ManageIQ/optimist/",
  "bug_tracker_uri": "https://github.com/ManageIQ/optimist/issues",
  "changelog_uri": "https://github.com/ManageIQ/optimist/blob/master/History.txt",
  "funding_uri": null
}