{
  "metadata": {
  },
  "project_uri": "https://rubygems.org/gems/text",
  "gem_uri": "https://rubygems.org/gems/text-1.3.1.gem",
  "homepage_uri": "http://github.com/threedaymonk/text",
  "wiki_uri": null,
  "documentation_uri": "https://www.rubydoc.info/gems/text/1.3.1",
  "mailing_list_uri": null,
  "source_code_uri": null,
  "bug_tracker_uri": null,
  "changelog_uri": null,
  "funding_uri": null
}