{
  "metadata": {
  },
  "project_uri": "https://rubygems.org/gems/graphlient",
  "gem_uri": "https://rubygems.org/gems/graphlient-0.6.0.gem",
  "homepage_uri": "http://github.com/ashkan18/graphlient",
  "wiki_uri": "",
  "documentation_uri": "https://github.com/ashkan18/graphlient",
  "mailing_list_uri": "",
  "source_code_uri": "https://github.com/ashkan18/graphlient",
  "bug_tracker_uri": "",
  "changelog_uri": null,
  "funding_uri": null
}