{
  "metadata": {
    "changelog_uri": "https://github.com/SeleniumHQ/selenium/blob/trunk/rb/CHANGES",
    "source_code_uri": "https://github.com/SeleniumHQ/selenium/tree/trunk/rb",
    "rubygems_mfa_required": "true"
  },
  "project_uri": "https://rubygems.org/gems/selenium-webdriver",
  "gem_uri": "https://rubygems.org/gems/selenium-webdriver-4.4.0.gem",
  "homepage_uri": "https://selenium.dev",
  "wiki_uri": null,
  "documentation_uri": null,
  "mailing_list_uri": null,
  "source_code_uri": "https://github.com/SeleniumHQ/selenium/tree/trunk/rb",
  "bug_tracker_uri": null,
  "changelog_uri": "https://github.com/SeleniumHQ/selenium/blob/trunk/rb/CHANGES",
  "funding_uri": null
}