{
  "metadata": {
  },
  "project_uri": "https://rubygems.org/gems/gitlab-mail_room",
  "gem_uri": "https://rubygems.org/gems/gitlab-mail_room-0.0.20.gem",
  "homepage_uri": "http://github.com/tpitale/mail_room",
  "wiki_uri": null,
  "documentation_uri": "https://www.rubydoc.info/gems/gitlab-mail_room/0.0.20",
  "mailing_list_uri": null,
  "source_code_uri": null,
  "bug_tracker_uri": null,
  "changelog_uri": null,
  "funding_uri": null
}