{
  "metadata": {
    "changelog_uri": "https://github.com/rack/rack/blob/master/CHANGELOG.md",
    "bug_tracker_uri": "https://github.com/rack/rack/issues",
    "source_code_uri": "https://github.com/rack/rack",
    "documentation_uri": "https://rubydoc.info/github/rack/rack"
  },
  "project_uri": "https://rubygems.org/gems/rack",
  "gem_uri": "https://rubygems.org/gems/rack-2.2.4.gem",
  "homepage_uri": "https://github.com/rack/rack",
  "wiki_uri": null,
  "documentation_uri": "https://rubydoc.info/github/rack/rack",
  "mailing_list_uri": null,
  "source_code_uri": "https://github.com/rack/rack",
  "bug_tracker_uri": "https://github.com/rack/rack/issues",
  "changelog_uri": "https://github.com/rack/rack/blob/master/CHANGELOG.md",
  "funding_uri": null
}