{
  "metadata": {
  },
  "project_uri": "https://rubygems.org/gems/lru_redux",
  "gem_uri": "https://rubygems.org/gems/lru_redux-1.1.0.gem",
  "homepage_uri": "https://github.com/SamSaffron/lru_redux",
  "wiki_uri": null,
  "documentation_uri": "https://www.rubydoc.info/gems/lru_redux/1.1.0",
  "mailing_list_uri": null,
  "source_code_uri": null,
  "bug_tracker_uri": null,
  "changelog_uri": null,
  "funding_uri": null
}