{
  "metadata": {
  },
  "project_uri": "https://rubygems.org/gems/rash_alt",
  "gem_uri": "https://rubygems.org/gems/rash_alt-0.4.12.gem",
  "homepage_uri": "https://github.com/shishi/rash_alt",
  "wiki_uri": null,
  "documentation_uri": "https://www.rubydoc.info/gems/rash_alt/0.4.12",
  "mailing_list_uri": null,
  "source_code_uri": null,
  "bug_tracker_uri": null,
  "changelog_uri": null,
  "funding_uri": null
}