{
  "metadata": {
    "changelog_uri": "https://github.com/rouge-ruby/rouge/blob/master/CHANGELOG.md",
    "bug_tracker_uri": "https://github.com/rouge-ruby/rouge/issues",
    "source_code_uri": "https://github.com/rouge-ruby/rouge",
    "documentation_uri": "https://rouge-ruby.github.io/docs/"
  },
  "project_uri": "https://rubygems.org/gems/rouge",
  "gem_uri": "https://rubygems.org/gems/rouge-3.30.0.gem",
  "homepage_uri": "http://rouge.jneen.net/",
  "wiki_uri": null,
  "documentation_uri": "https://rouge-ruby.github.io/docs/",
  "mailing_list_uri": null,
  "source_code_uri": "https://github.com/rouge-ruby/rouge",
  "bug_tracker_uri": "https://github.com/rouge-ruby/rouge/issues",
  "changelog_uri": "https://github.com/rouge-ruby/rouge/blob/master/CHANGELOG.md",
  "funding_uri": null
}