{
  "metadata": {
    "changelog_uri": "https://github.com/googleapis/signet/blob/main/CHANGELOG.md",
    "bug_tracker_uri": "https://github.com/googleapis/signet/issues",
    "source_code_uri": "https://github.com/googleapis/signet"
  },
  "project_uri": "https://rubygems.org/gems/signet",
  "gem_uri": "https://rubygems.org/gems/signet-0.17.0.gem",
  "homepage_uri": "https://github.com/googleapis/signet",
  "wiki_uri": null,
  "documentation_uri": null,
  "mailing_list_uri": null,
  "source_code_uri": "https://github.com/googleapis/signet",
  "bug_tracker_uri": "https://github.com/googleapis/signet/issues",
  "changelog_uri": "https://github.com/googleapis/signet/blob/main/CHANGELOG.md",
  "funding_uri": null
}