{
  "metadata": {
  },
  "project_uri": "https://rubygems.org/gems/terser",
  "gem_uri": "https://rubygems.org/gems/terser-1.1.12.gem",
  "homepage_uri": "http://github.com/ahorek/terser-ruby",
  "wiki_uri": null,
  "documentation_uri": "https://www.rubydoc.info/gems/terser/1.1.12",
  "mailing_list_uri": null,
  "source_code_uri": null,
  "bug_tracker_uri": null,
  "changelog_uri": null,
  "funding_uri": null
}