{
  "metadata": {
    "homepage_uri": "https://github.com/copiousfreetime/launchy",
    "changelog_uri": "https://github.com/copiousfreetime/launchy/blob/master/README.md",
    "bug_tracker_uri": "https://github.com/copiousfreetime/launchy/issues",
    "source_code_uri": "https://github.com/copiousfreetime/launchy"
  },
  "project_uri": "https://rubygems.org/gems/launchy",
  "gem_uri": "https://rubygems.org/gems/launchy-2.5.0.gem",
  "homepage_uri": "https://github.com/copiousfreetime/launchy",
  "wiki_uri": null,
  "documentation_uri": null,
  "mailing_list_uri": null,
  "source_code_uri": "https://github.com/copiousfreetime/launchy",
  "bug_tracker_uri": "https://github.com/copiousfreetime/launchy/issues",
  "changelog_uri": "https://github.com/copiousfreetime/launchy/blob/master/README.md",
  "funding_uri": null
}