{
  "metadata": {
    "changelog_uri": "https://github.com/jnunemaker/flipper/blob/master/Changelog.md"
  },
  "project_uri": "https://rubygems.org/gems/flipper-active_record",
  "gem_uri": "https://rubygems.org/gems/flipper-active_record-0.25.2.gem",
  "homepage_uri": "https://github.com/jnunemaker/flipper",
  "wiki_uri": null,
  "documentation_uri": null,
  "mailing_list_uri": null,
  "source_code_uri": null,
  "bug_tracker_uri": null,
  "changelog_uri": "https://github.com/jnunemaker/flipper/blob/master/Changelog.md",
  "funding_uri": null
}