{
  "metadata": {
    "wiki_uri": "https://github.com/jfelchner/ruby-progressbar/wiki",
    "homepage_uri": "https://github.com/jfelchner/ruby-progressbar",
    "changelog_uri": "https://github.com/jfelchner/ruby-progressbar/blob/master/CHANGELOG.md",
    "bug_tracker_uri": "https://github.com/jfelchner/ruby-progressbar/issues",
    "source_code_uri": "https://github.com/jfelchner/ruby-progressbar",
    "documentation_uri": "https://github.com/jfelchner/ruby-progressbar/tree/releases/v1.11.0"
  },
  "project_uri": "https://rubygems.org/gems/ruby-progressbar",
  "gem_uri": "https://rubygems.org/gems/ruby-progressbar-1.11.0.gem",
  "homepage_uri": "https://github.com/jfelchner/ruby-progressbar",
  "wiki_uri": "https://github.com/jfelchner/ruby-progressbar/wiki",
  "documentation_uri": "https://github.com/jfelchner/ruby-progressbar/tree/releases/v1.11.0",
  "mailing_list_uri": null,
  "source_code_uri": "https://github.com/jfelchner/ruby-progressbar",
  "bug_tracker_uri": "https://github.com/jfelchner/ruby-progressbar/issues",
  "changelog_uri": "https://github.com/jfelchner/ruby-progressbar/blob/master/CHANGELOG.md",
  "funding_uri": null
}