{
  "metadata": {
  },
  "project_uri": "https://rubygems.org/gems/github-markup",
  "gem_uri": "https://rubygems.org/gems/github-markup-4.0.1.gem",
  "homepage_uri": "https://github.com/github/markup",
  "wiki_uri": null,
  "documentation_uri": "https://www.rubydoc.info/gems/github-markup/4.0.1",
  "mailing_list_uri": null,
  "source_code_uri": null,
  "bug_tracker_uri": null,
  "changelog_uri": null,
  "funding_uri": null
}