{
  "metadata": {
  },
  "project_uri": "https://rubygems.org/gems/kramdown-parser-gfm",
  "gem_uri": "https://rubygems.org/gems/kramdown-parser-gfm-1.1.0.gem",
  "homepage_uri": "https://github.com/kramdown/parser-gfm",
  "wiki_uri": null,
  "documentation_uri": "https://www.rubydoc.info/gems/kramdown-parser-gfm/1.1.0",
  "mailing_list_uri": null,
  "source_code_uri": null,
  "bug_tracker_uri": null,
  "changelog_uri": null,
  "funding_uri": null
}