{
  "metadata": {
    "rubygems_mfa_required": "true"
  },
  "project_uri": "https://rubygems.org/gems/commonmarker",
  "gem_uri": "https://rubygems.org/gems/commonmarker-0.23.5.gem",
  "homepage_uri": "https://github.com/gjtorikian/commonmarker",
  "wiki_uri": null,
  "documentation_uri": "https://www.rubydoc.info/gems/commonmarker/0.23.5",
  "mailing_list_uri": null,
  "source_code_uri": null,
  "bug_tracker_uri": null,
  "changelog_uri": null,
  "funding_uri": null
}