{
  "metadata": {
  },
  "project_uri": "https://rubygems.org/gems/timfel-krb5-auth",
  "gem_uri": "https://rubygems.org/gems/timfel-krb5-auth-0.8.3.gem",
  "homepage_uri": "http://rubyforge.org/projects/krb5-auth/",
  "wiki_uri": null,
  "documentation_uri": "https://www.rubydoc.info/gems/timfel-krb5-auth/0.8.3",
  "mailing_list_uri": null,
  "source_code_uri": null,
  "bug_tracker_uri": null,
  "changelog_uri": null,
  "funding_uri": null
}