{
  "metadata": {
    "source_code_uri": "https://github.com/thibaudgg/rb-fsevent"
  },
  "project_uri": "https://rubygems.org/gems/rb-fsevent",
  "gem_uri": "https://rubygems.org/gems/rb-fsevent-0.11.2.gem",
  "homepage_uri": "http://rubygems.org/gems/rb-fsevent",
  "wiki_uri": null,
  "documentation_uri": null,
  "mailing_list_uri": null,
  "source_code_uri": "https://github.com/thibaudgg/rb-fsevent",
  "bug_tracker_uri": null,
  "changelog_uri": null,
  "funding_uri": null
}