{
  "RedCloth": "4.3.2",
  "acme-client": "2.0.11",
  "actioncable": "6.1.6.1",
  "actionmailbox": "6.1.6.1",
  "actionmailer": "6.1.6.1",
  "actionpack": "6.1.6.1",
  "actiontext": "6.1.6.1",
  "actionview": "6.1.6.1",
  "activejob": "6.1.6.1",
  "activemodel": "6.1.6.1",
  "activerecord": "6.1.6.1",
  "activerecord-explain-analyze": "0.1.0",
  "activestorage": "6.1.6.1",
  "activesupport": "6.1.6.1",
  "acts-as-taggable-on": "9.0.0",
  "addressable": "2.8.0",
  "aes_key_wrap": "1.1.0",
  "akismet": "3.0.0",
  "android_key_attestation": "0.3.0",
  "apollo_upload_server": "2.1.0",
  "asana": "0.10.13",
  "asciidoctor": "2.0.15",
  "asciidoctor-include-ext": "0.4.0",
  "asciidoctor-kroki": "0.5.0",
  "asciidoctor-plantuml": "0.0.12",
  "ast": "2.4.2",
  "atlassian-jwt": "0.2.0",
  "attr_encrypted": "3.1.0",
  "attr_required": "1.0.1",
  "autoprefixer-rails": "10.2.5.1",
  "awesome_print": "1.9.2",
  "awrence": "1.1.1",
  "aws-eventstream": "1.2.0",
  "aws-partitions": "1.600.0",
  "aws-sdk-cloudformation": "1.41.0",
  "aws-sdk-core": "3.131.1",
  "aws-sdk-kms": "1.57.0",
  "aws-sdk-s3": "1.114.0",
  "aws-sigv4": "1.5.0",
  "azure-storage-blob": "2.0.3",
  "azure-storage-common": "2.0.4",
  "babosa": "1.0.4",
  "backport": "1.2.0",
  "base32": "0.3.2",
  "batch-loader": "2.0.1",
  "bcrypt": "3.1.16",
  "benchmark": "0.2.0",
  "benchmark-ips": "2.3.0",
  "benchmark-malloc": "0.2.0",
  "benchmark-memory": "0.1.2",
  "benchmark-perf": "0.6.0",
  "benchmark-trend": "0.4.0",
  "better_errors": "2.9.1",
  "bindata": "2.4.10",
  "binding_ninja": "0.2.3",
  "bootsnap": "1.13.0",
  "bootstrap_form": "4.2.0",
  "browser": "4.2.0",
  "builder": "3.2.4",
  "bullet": "7.0.2",
  "bundler-audit": "0.7.0.1",
  "byebug": "11.1.3",
  "capybara": "3.35.3",
  "capybara-screenshot": "1.0.22",
  "carrierwave": "1.3.2",
  "cbor": "0.5.9.6",
  "character_set": "1.4.1",
  "charlock_holmes": "0.7.7",
  "chef-config": "16.10.17",
  "chef-utils": "16.10.17",
  "childprocess": "3.0.0",
  "chunky_png": "1.3.5",
  "citrus": "3.0.2",
  "claide": "1.1.0",
  "claide-plugins": "0.9.2",
  "coderay": "1.1.3",
  "colored2": "3.1.2",
  "commonmarker": "0.23.4",
  "concurrent-ruby": "1.1.10",
  "connection_pool": "2.2.5",
  "contracts": "0.11.0",
  "cork": "0.3.0",
  "cose": "1.0.0",
  "countries": "3.0.0",
  "crack": "0.4.3",
  "crass": "1.0.6",
  "creole": "0.5.0",
  "crystalball": "0.7.0",
  "css_parser": "1.11.0",
  "danger": "8.6.1",
  "danger-gitlab": "8.0.0",
  "database_cleaner": "1.7.0",
  "dead_end": "3.1.1",
  "deckar01-task_list": "2.3.1",
  "declarative": "0.0.20",
  "declarative-option": "0.1.0",
  "declarative_policy": "1.1.0",
  "default_value_for": "3.4.0",
  "deprecation_toolkit": "1.5.1",
  "derailed_benchmarks": "2.1.1",
  "device_detector": "1.0.0",
  "devise": "4.8.1",
  "devise-two-factor": "4.0.2",
  "diff-lcs": "1.5.0",
  "diff_match_patch": "0.1.0",
  "diffy": "3.4.2",
  "discordrb-webhooks": "3.4.2",
  "docile": "1.4.0",
  "domain_name": "0.5.20190701",
  "doorkeeper": "5.5.0.rc2",
  "doorkeeper-openid_connect": "1.7.5",
  "dotenv": "2.7.6",
  "dry-configurable": "0.12.0",
  "dry-container": "0.7.2",
  "dry-core": "0.5.0",
  "dry-equalizer": "0.3.0",
  "dry-inflector": "0.2.0",
  "dry-logic": "1.1.0",
  "dry-types": "1.4.0",
  "e2mmap": "0.1.0",
  "ecma-re-validator": "0.3.0",
  "ed25519": "1.3.0",
  "elasticsearch": "7.13.3",
  "elasticsearch-api": "7.13.3",
  "elasticsearch-model": "7.2.0",
  "elasticsearch-rails": "7.2.1",
  "elasticsearch-transport": "7.13.3",
  "email_reply_trimmer": "0.1.6",
  "email_spec": "2.2.0",
  "encryptor": "3.0.0",
  "erubi": "1.9.0",
  "escape_utils": "1.2.1",
  "et-orbi": "1.2.1",
  "ethon": "0.15.0",
  "excon": "0.90.0",
  "execjs": "2.8.1",
  "expression_parser": "0.9.0",
  "extended-markdown-filter": "0.6.0",
  "factory_bot": "6.2.0",
  "factory_bot_rails": "6.2.0",
  "faraday": "1.10.0",
  "faraday-cookie_jar": "0.0.7",
  "faraday-em_http": "1.0.0",
  "faraday-em_synchrony": "1.0.0",
  "faraday-excon": "1.1.0",
  "faraday-http-cache": "2.4.0",
  "faraday-httpclient": "1.0.1",
  "faraday-multipart": "1.0.4",
  "faraday-net_http": "1.0.1",
  "faraday-net_http_persistent": "1.2.0",
  "faraday-patron": "1.0.0",
  "faraday-rack": "1.0.0",
  "faraday-retry": "1.0.3",
  "faraday_middleware": "1.2.0",
  "faraday_middleware-aws-sigv4": "0.3.0",
  "faraday_middleware-multi_json": "0.0.6",
  "fast_blank": "1.0.0",
  "fast_gettext": "2.1.0",
  "ffaker": "2.10.0",
  "ffi": "1.15.5",
  "ffi-compiler": "1.0.1",
  "ffi-yajl": "2.3.4",
  "filelock": "1.1.1",
  "find_a_port": "1.0.1",
  "flipper": "0.25.0",
  "flipper-active_record": "0.25.0",
  "flipper-active_support_cache_store": "0.25.0",
  "flowdock": "0.7.1",
  "fog-aliyun": "0.3.3",
  "fog-aws": "3.14.0",
  "fog-core": "2.1.0",
  "fog-google": "1.15.0",
  "fog-json": "1.2.0",
  "fog-local": "0.6.0",
  "fog-openstack": "1.0.8",
  "fog-rackspace": "0.1.1",
  "fog-xml": "0.1.3",
  "formatador": "0.2.5",
  "fugit": "1.2.1",
  "fuubar": "2.2.0",
  "fuzzyurl": "0.9.0",
  "gemoji": "3.0.1",
  "get_process_mem": "0.2.7",
  "gettext": "3.3.6",
  "gettext_i18n_rails": "1.8.0",
  "gettext_i18n_rails_js": "1.3.0",
  "git": "1.11.0",
  "gitaly": "15.3.0.pre.rc4",
  "github-markup": "1.7.0",
  "gitlab": "4.16.1",
  "gitlab-chronic": "0.10.5",
  "gitlab-dangerfiles": "3.5.1",
  "gitlab-experiment": "0.7.1",
  "gitlab-fog-azure-rm": "1.3.0",
  "gitlab-labkit": "0.24.0",
  "gitlab-license": "2.2.1",
  "gitlab-mail_room": "0.0.9",
  "gitlab-markup": "1.8.0",
  "gitlab-net-dns": "0.9.1",
  "gitlab-omniauth-openid-connect": "0.9.1",
  "gitlab-sidekiq-fetcher": "0.8.0",
  "gitlab-styles": "7.1.0",
  "gitlab_chronic_duration": "0.10.6.2",
  "gitlab_omniauth-ldap": "2.2.0",
  "globalid": "1.0.0",
  "gon": "6.4.0",
  "google-api-client": "0.50.0",
  "google-cloud-env": "1.6.0",
  "google-protobuf": "3.21.5",
  "googleapis-common-protos-types": "1.3.0",
  "googleauth": "0.14.0",
  "gpgme": "2.0.20",
  "grape": "1.5.2",
  "grape-entity": "0.10.0",
  "grape-path-helpers": "1.7.1",
  "grape_logging": "1.8.4",
  "graphiql-rails": "1.8.0",
  "graphlient": "0.5.0",
  "graphlyte": "1.0.0",
  "graphql": "1.13.12",
  "graphql-client": "0.17.0",
  "graphql-docs": "2.1.0",
  "grpc": "1.42.0",
  "gssapi": "1.2.0",
  "guard": "2.16.2",
  "guard-compat": "1.2.1",
  "guard-rspec": "4.7.3",
  "haml": "5.2.2",
  "haml_lint": "0.40.1",
  "hamlit": "2.15.0",
  "hana": "1.3.7",
  "hangouts-chat": "0.0.5",
  "hashdiff": "1.0.1",
  "hashie": "4.1.0",
  "hashie-forbidden_attributes": "0.1.1",
  "health_check": "3.0.0",
  "heapy": "0.2.0",
  "html-pipeline": "2.13.2",
  "html2text": "0.2.0",
  "htmlbeautifier": "1.4.2",
  "htmlentities": "4.3.4",
  "http": "4.4.1",
  "http-accept": "1.7.0",
  "http-cookie": "1.0.5",
  "http-form_data": "2.3.0",
  "http-parser": "1.2.3",
  "httparty": "0.16.4",
  "httpclient": "2.8.3",
  "i18n": "1.12.0",
  "i18n_data": "0.8.0",
  "icalendar": "2.4.1",
  "imagen": "0.1.8",
  "invisible_captcha": "1.1.0",
  "ipaddress": "0.8.3",
  "jaeger-client": "1.1.0",
  "jaro_winkler": "1.5.4",
  "jira-ruby": "2.1.4",
  "jmespath": "1.6.1",
  "js_regex": "3.7.0",
  "json": "2.5.1",
  "json-jwt": "1.13.0",
  "json_schemer": "0.2.18",
  "jsonpath": "1.1.2",
  "jwt": "2.1.0",
  "kaminari": "1.2.1",
  "kaminari-actionview": "1.2.1",
  "kaminari-activerecord": "1.2.1",
  "kaminari-core": "1.2.1",
  "kas-grpc": "0.0.2",
  "knapsack": "1.21.1",
  "kramdown": "2.3.2",
  "kramdown-parser-gfm": "1.1.0",
  "kubeclient": "4.9.3",
  "launchy": "2.5.0",
  "lefthook": "1.1.1",
  "letter_opener": "1.7.0",
  "letter_opener_web": "2.0.0",
  "libyajl2": "1.2.0",
  "license_finder": "7.0.1",
  "licensee": "9.15.2",
  "listen": "3.7.1",
  "locale": "2.1.3",
  "lockbox": "0.6.2",
  "lograge": "0.11.2",
  "loofah": "2.18.0",
  "lookbook": "0.9.3",
  "lru_redux": "1.1.0",
  "lumberjack": "1.2.7",
  "mail": "2.7.1",
  "marcel": "1.0.2",
  "marginalia": "1.10.0",
  "memoist": "0.16.2",
  "memory_profiler": "0.9.14",
  "method_source": "1.0.0",
  "mime-types": "3.4.1",
  "mime-types-data": "3.2022.0105",
  "mini_histogram": "0.3.1",
  "mini_magick": "4.10.1",
  "mini_mime": "1.1.2",
  "mini_portile2": "2.8.0",
  "minitest": "5.11.3",
  "mixlib-cli": "2.1.8",
  "mixlib-config": "3.0.9",
  "mixlib-log": "3.0.9",
  "mixlib-shellout": "3.2.5",
  "ms_rest": "0.7.6",
  "ms_rest_azure": "0.12.0",
  "msgpack": "1.5.4",
  "multi_json": "1.14.1",
  "multi_xml": "0.6.0",
  "multipart-post": "2.2.3",
  "murmurhash3": "0.1.6",
  "mustermann": "1.1.1",
  "mustermann-grape": "1.0.1",
  "nap": "1.1.0",
  "nenv": "0.3.0",
  "net-http-persistent": "4.0.1",
  "net-ldap": "0.16.3",
  "net-ntp": "2.1.3",
  "net-scp": "3.0.0",
  "net-ssh": "6.0.0",
  "netrc": "0.11.0",
  "nio4r": "2.5.8",
  "no_proxy_fix": "0.1.2",
  "nokogiri": "1.13.8",
  "notiffany": "0.1.3",
  "numerizer": "0.2.0",
  "oauth": "0.5.6",
  "oauth2": "2.0.3",
  "octokit": "4.25.1",
  "ohai": "16.10.6",
  "oj": "3.13.21",
  "omniauth": "1.9.1",
  "omniauth-alicloud": "1.0.1",
  "omniauth-atlassian-oauth2": "0.2.0",
  "omniauth-auth0": "2.0.0",
  "omniauth-authentiq": "0.3.3",
  "omniauth-azure-activedirectory-v2": "1.0.0",
  "omniauth-dingtalk-oauth2": "1.0.1",
  "omniauth-facebook": "4.0.0",
  "omniauth-github": "1.4.0",
  "omniauth-oauth": "1.2.0",
  "omniauth-oauth2": "1.7.3",
  "omniauth-oauth2-generic": "0.2.2",
  "omniauth-saml": "1.10.0",
  "omniauth-shibboleth": "1.3.0",
  "omniauth-twitter": "1.4.0",
  "open4": "1.3.4",
  "openid_connect": "1.3.0",
  "openssl": "2.2.0",
  "openssl-signature_algorithm": "0.4.0",
  "opentracing": "0.5.0",
  "optimist": "3.0.1",
  "org-ruby": "0.9.12",
  "orm_adapter": "0.5.0",
  "os": "1.1.1",
  "pact": "1.59.0",
  "pact-mock_service": "3.6.2",
  "pact-support": "1.15.1",
  "parallel": "1.22.1",
  "parser": "3.1.2.0",
  "parslet": "1.8.2",
  "pastel": "0.8.0",
  "peek": "1.1.0",
  "pg": "1.4.1",
  "pg_query": "2.1.3",
  "plist": "3.6.0",
  "png_quantizator": "0.2.1",
  "po_to_json": "1.0.1",
  "premailer": "1.16.0",
  "premailer-rails": "1.10.3",
  "proc_to_ast": "0.1.0",
  "prometheus-client-mmap": "0.16.2",
  "pry": "0.13.1",
  "pry-byebug": "3.9.0",
  "pry-rails": "0.3.9",
  "pry-shell": "0.5.1",
  "public_suffix": "4.0.7",
  "puma": "5.6.5",
  "puma_worker_killer": "0.3.1",
  "pyu-ruby-sasl": "0.0.3.3",
  "raabro": "1.1.6",
  "racc": "1.6.0",
  "rack": "2.2.4",
  "rack-accept": "0.4.5",
  "rack-attack": "6.6.1",
  "rack-cors": "1.1.1",
  "rack-oauth2": "1.21.2",
  "rack-proxy": "0.7.2",
  "rack-test": "1.1.0",
  "rack-timeout": "0.6.0",
  "rails": "6.1.6.1",
  "rails-controller-testing": "1.0.5",
  "rails-dom-testing": "2.0.3",
  "rails-html-sanitizer": "1.4.3",
  "rails-i18n": "7.0.3",
  "railties": "6.1.6.1",
  "rainbow": "3.1.1",
  "rake": "13.0.6",
  "randexp": "0.1.7",
  "rash_alt": "0.4.12",
  "rb-fsevent": "0.11.1",
  "rb-inotify": "0.10.1",
  "rbtrace": "0.4.14",
  "rbtree": "0.4.4",
  "rchardet": "1.8.0",
  "rdoc": "6.3.2",
  "re2": "1.4.0",
  "recaptcha": "4.13.1",
  "recursive-open-struct": "1.1.3",
  "redcarpet": "3.5.1",
  "redis": "4.7.1",
  "redis-actionpack": "5.3.0",
  "redis-namespace": "1.8.1",
  "redis-rack": "2.1.4",
  "redis-store": "1.9.1",
  "regexp_parser": "2.5.0",
  "regexp_property_values": "1.0.0",
  "representable": "3.0.4",
  "request_store": "1.5.1",
  "responders": "3.0.0",
  "rest-client": "2.1.0",
  "retriable": "3.1.2",
  "reverse_markdown": "1.4.0",
  "rexml": "3.2.5",
  "rinku": "2.0.0",
  "rotp": "6.2.0",
  "rouge": "3.30.0",
  "rqrcode": "0.7.0",
  "rqrcode-rails3": "0.1.7",
  "rspec": "3.10.0",
  "rspec-benchmark": "0.6.0",
  "rspec-core": "3.10.1",
  "rspec-expectations": "3.10.1",
  "rspec-mocks": "3.10.3",
  "rspec-parameterized": "0.5.0",
  "rspec-rails": "5.0.1",
  "rspec-retry": "0.6.1",
  "rspec-support": "3.10.2",
  "rspec_junit_formatter": "0.4.1",
  "rspec_profiling": "0.0.6",
  "rubocop": "0.93.1",
  "rubocop-ast": "1.19.1",
  "rubocop-gitlab-security": "0.1.1",
  "rubocop-graphql": "0.14.3",
  "rubocop-performance": "1.9.2",
  "rubocop-rails": "2.9.1",
  "rubocop-rspec": "1.44.1",
  "ruby-fogbugz": "0.2.1",
  "ruby-magic": "0.5.4",
  "ruby-prof": "1.3.1",
  "ruby-progressbar": "1.11.0",
  "ruby-saml": "1.13.0",
  "ruby-statistics": "3.0.0",
  "ruby2_keywords": "0.0.5",
  "ruby_parser": "3.15.0",
  "rubyntlm": "0.6.3",
  "rubypants": "0.2.0",
  "rubyzip": "2.3.2",
  "rugged": "1.2.0",
  "safe_yaml": "1.0.4",
  "safety_net_attestation": "0.4.0",
  "sanitize": "6.0.0",
  "sass": "3.5.5",
  "sass-listen": "4.0.0",
  "sassc": "2.4.0",
  "sassc-rails": "2.1.0",
  "sawyer": "0.9.2",
  "sd_notify": "0.1.0",
  "securecompare": "1.0.0",
  "seed-fu": "2.3.7",
  "selenium-webdriver": "3.142.7",
  "sentry-rails": "5.1.1",
  "sentry-raven": "3.1.2",
  "sentry-ruby": "5.1.1",
  "sentry-ruby-core": "5.1.1",
  "sentry-sidekiq": "5.1.1",
  "set": "1.0.1",
  "settingslogic": "2.0.9",
  "sexp_processor": "4.15.1",
  "shellany": "0.0.1",
  "shoulda-matchers": "5.1.0",
  "sidekiq": "6.4.0",
  "sidekiq-cron": "1.2.0",
  "sigdump": "0.2.4",
  "signet": "0.17.0",
  "simple_po_parser": "1.1.6",
  "simplecov": "0.21.2",
  "simplecov-cobertura": "1.3.1",
  "simplecov-html": "0.12.3",
  "simplecov-lcov": "0.8.0",
  "simplecov_json_formatter": "0.1.4",
  "sixarm_ruby_unaccent": "1.2.0",
  "slack-messenger": "2.3.4",
  "snowplow-tracker": "0.6.1",
  "solargraph": "0.45.0",
  "sorted_set": "1.0.3",
  "spamcheck": "1.0.0",
  "spring": "2.1.1",
  "spring-commands-rspec": "1.0.4",
  "sprite-factory": "1.7.1",
  "sprockets": "3.7.2",
  "sprockets-rails": "3.4.2",
  "sqlite3": "1.4.2",
  "ssh_data": "1.3.0",
  "ssrf_filter": "1.0.7",
  "stackprof": "0.2.21",
  "state_machines": "0.5.0",
  "state_machines-activemodel": "0.8.0",
  "state_machines-activerecord": "0.8.0",
  "strings": "0.2.1",
  "strings-ansi": "0.2.0",
  "swd": "1.3.0",
  "sync": "0.5.0",
  "sys-filesystem": "1.4.3",
  "sysexits": "1.2.0",
  "tanuki_emoji": "0.6.0",
  "temple": "0.8.2",
  "term-ansicolor": "1.7.1",
  "terminal-table": "1.8.0",
  "terser": "1.0.2",
  "test-prof": "1.0.7",
  "test_file_finder": "0.1.4",
  "text": "1.3.1",
  "thor": "1.2.1",
  "thrift": "0.16.0",
  "tilt": "2.0.10",
  "timecop": "0.9.1",
  "timeliness": "0.3.10",
  "timfel-krb5-auth": "0.8.3",
  "tins": "1.31.0",
  "toml-rb": "2.0.1",
  "tomlrb": "1.3.0",
  "tpm-key_attestation": "0.9.0",
  "train-core": "3.4.9",
  "truncato": "0.7.12",
  "tty-color": "0.6.0",
  "tty-cursor": "0.7.1",
  "tty-markdown": "0.7.0",
  "tty-prompt": "0.23.1",
  "tty-reader": "0.9.0",
  "tty-screen": "0.8.1",
  "typhoeus": "1.4.0",
  "tzinfo": "2.0.5",
  "u2f": "0.2.1",
  "uber": "0.1.0",
  "undercover": "0.4.4",
  "unf": "0.1.4",
  "unf_ext": "0.0.8.2",
  "unicode-display_width": "1.8.0",
  "unicode_utils": "1.4.0",
  "uniform_notifier": "1.16.0",
  "unleash": "3.2.2",
  "unparser": "0.6.0",
  "uri_template": "0.7.0",
  "valid_email": "0.1.3",
  "validate_email": "0.1.6",
  "validate_url": "1.0.13",
  "validates_hostname": "1.0.11",
  "version_gem": "1.0.0",
  "version_sorter": "2.2.4",
  "view_component": "2.69.0",
  "vmstat": "2.3.0",
  "warden": "1.2.9",
  "warning": "1.3.0",
  "webauthn": "2.3.0",
  "webfinger": "1.2.0",
  "webmock": "3.9.1",
  "webrick": "1.6.1",
  "websocket-driver": "0.7.5",
  "websocket-extensions": "0.1.5",
  "wikicloth": "0.8.1",
  "wisper": "2.0.1",
  "with_env": "1.1.0",
  "wmi-lite": "1.0.5",
  "xml-simple": "1.1.9",
  "xpath": "3.2.0",
  "yajl-ruby": "1.4.3",
  "yard": "0.9.26",
  "zeitwerk": "2.6.0"
}