{
  "metadata": {
  },
  "project_uri": "https://rubygems.org/gems/temple",
  "gem_uri": "https://rubygems.org/gems/temple-0.8.2.gem",
  "homepage_uri": "https://github.com/judofyr/temple",
  "wiki_uri": "",
  "documentation_uri": "http://rubydoc.info/gems/temple/frames",
  "mailing_list_uri": "",
  "source_code_uri": "http://github.com/judofyr/temple",
  "bug_tracker_uri": "https://github.com/judofyr/temple/issues",
  "changelog_uri": null,
  "funding_uri": null
}