{
  "metadata": {
    "homepage_uri": "https://github.com/ruby/set",
    "changelog_uri": "https://github.com/ruby/set/blob/v1.0.2/CHANGELOG.md",
    "source_code_uri": "https://github.com/ruby/set"
  },
  "project_uri": "https://rubygems.org/gems/set",
  "gem_uri": "https://rubygems.org/gems/set-1.0.2.gem",
  "homepage_uri": "https://github.com/ruby/set",
  "wiki_uri": null,
  "documentation_uri": null,
  "mailing_list_uri": null,
  "source_code_uri": "https://github.com/ruby/set",
  "bug_tracker_uri": null,
  "changelog_uri": "https://github.com/ruby/set/blob/v1.0.2/CHANGELOG.md",
  "funding_uri": null
}