{
  "metadata": {
  },
  "project_uri": "https://rubygems.org/gems/mime-types-data",
  "gem_uri": "https://rubygems.org/gems/mime-types-data-3.2022.0105.gem",
  "homepage_uri": "https://github.com/mime-types/mime-types-data/",
  "wiki_uri": null,
  "documentation_uri": "https://www.rubydoc.info/gems/mime-types-data/3.2022.0105",
  "mailing_list_uri": null,
  "source_code_uri": null,
  "bug_tracker_uri": null,
  "changelog_uri": null,
  "funding_uri": null
}