{
  "metadata": {
    "homepage_uri": "https://github.com/piotrmurach/strings",
    "changelog_uri": "https://github.com/piotrmurach/strings/blob/master/CHANGELOG.md",
    "source_code_uri": "https://github.com/piotrmurach/strings",
    "allowed_push_host": "https://rubygems.org",
    "documentation_uri": "https://www.rubydoc.info/gems/strings"
  },
  "project_uri": "https://rubygems.org/gems/strings",
  "gem_uri": "https://rubygems.org/gems/strings-0.2.1.gem",
  "homepage_uri": "https://github.com/piotrmurach/strings",
  "wiki_uri": null,
  "documentation_uri": "https://www.rubydoc.info/gems/strings",
  "mailing_list_uri": null,
  "source_code_uri": "https://github.com/piotrmurach/strings",
  "bug_tracker_uri": null,
  "changelog_uri": "https://github.com/piotrmurach/strings/blob/master/CHANGELOG.md",
  "funding_uri": null
}