{
  "metadata": {
    "homepage_uri": "https://github.com/liufengyun/hashdiff",
    "changelog_uri": "https://github.com/liufengyun/hashdiff/blob/master/changelog.md",
    "bug_tracker_uri": "https://github.com/liufengyun/hashdiff/issues",
    "source_code_uri": "https://github.com/liufengyun/hashdiff",
    "documentation_uri": "https://www.rubydoc.info/gems/hashdiff"
  },
  "project_uri": "https://rubygems.org/gems/hashdiff",
  "gem_uri": "https://rubygems.org/gems/hashdiff-1.0.1.gem",
  "homepage_uri": "https://github.com/liufengyun/hashdiff",
  "wiki_uri": null,
  "documentation_uri": "https://www.rubydoc.info/gems/hashdiff",
  "mailing_list_uri": null,
  "source_code_uri": "https://github.com/liufengyun/hashdiff",
  "bug_tracker_uri": "https://github.com/liufengyun/hashdiff/issues",
  "changelog_uri": "https://github.com/liufengyun/hashdiff/blob/master/changelog.md",
  "funding_uri": null
}