{
  "metadata": {
  },
  "project_uri": "https://rubygems.org/gems/fog-local",
  "gem_uri": "https://rubygems.org/gems/fog-local-0.8.0.gem",
  "homepage_uri": "https://github.com/fog/fog-local",
  "wiki_uri": null,
  "documentation_uri": "https://www.rubydoc.info/gems/fog-local/0.8.0",
  "mailing_list_uri": null,
  "source_code_uri": null,
  "bug_tracker_uri": null,
  "changelog_uri": null,
  "funding_uri": null
}