{
  "metadata": {
    "wiki_uri": "https://github.com/lostisland/faraday-multipart/wiki",
    "homepage_uri": "https://github.com/lostisland/faraday-multipart",
    "changelog_uri": "https://github.com/lostisland/faraday-multipart/blob/v1.0.4/CHANGELOG.md",
    "bug_tracker_uri": "https://github.com/lostisland/faraday-multipart/issues",
    "source_code_uri": "https://github.com/lostisland/faraday-multipart",
    "documentation_uri": "http://www.rubydoc.info/gems/faraday-multipart/1.0.4"
  },
  "project_uri": "https://rubygems.org/gems/faraday-multipart",
  "gem_uri": "https://rubygems.org/gems/faraday-multipart-1.0.4.gem",
  "homepage_uri": "https://github.com/lostisland/faraday-multipart",
  "wiki_uri": "https://github.com/lostisland/faraday-multipart/wiki",
  "documentation_uri": "http://www.rubydoc.info/gems/faraday-multipart/1.0.4",
  "mailing_list_uri": null,
  "source_code_uri": "https://github.com/lostisland/faraday-multipart",
  "bug_tracker_uri": "https://github.com/lostisland/faraday-multipart/issues",
  "changelog_uri": "https://github.com/lostisland/faraday-multipart/blob/v1.0.4/CHANGELOG.md",
  "funding_uri": null
}