{
  "metadata": {
  },
  "project_uri": "https://rubygems.org/gems/escape_utils",
  "gem_uri": "https://rubygems.org/gems/escape_utils-1.3.0.gem",
  "homepage_uri": "https://github.com/brianmario/escape_utils",
  "wiki_uri": null,
  "documentation_uri": "https://www.rubydoc.info/gems/escape_utils/1.3.0",
  "mailing_list_uri": null,
  "source_code_uri": null,
  "bug_tracker_uri": null,
  "changelog_uri": null,
  "funding_uri": null
}