{
  "metadata": {
  },
  "project_uri": "https://rubygems.org/gems/azure-storage-common",
  "gem_uri": "https://rubygems.org/gems/azure-storage-common-2.0.4.gem",
  "homepage_uri": "http://github.com/azure/azure-storage-ruby",
  "wiki_uri": null,
  "documentation_uri": "https://www.rubydoc.info/gems/azure-storage-common/2.0.4",
  "mailing_list_uri": null,
  "source_code_uri": null,
  "bug_tracker_uri": null,
  "changelog_uri": null,
  "funding_uri": null
}