{
  "metadata": {
    "rubygems_mfa_required": "true"
  },
  "project_uri": "https://rubygems.org/gems/jaeger-client",
  "gem_uri": "https://rubygems.org/gems/jaeger-client-1.3.0.gem",
  "homepage_uri": "https://github.com/salemove/jaeger-client-ruby",
  "wiki_uri": null,
  "documentation_uri": "https://www.rubydoc.info/gems/jaeger-client/1.3.0",
  "mailing_list_uri": null,
  "source_code_uri": null,
  "bug_tracker_uri": null,
  "changelog_uri": null,
  "funding_uri": null
}