{
  "metadata": {
  },
  "project_uri": "https://rubygems.org/gems/open4",
  "gem_uri": "https://rubygems.org/gems/open4-1.3.4.gem",
  "homepage_uri": "https://github.com/ahoward/open4",
  "wiki_uri": null,
  "documentation_uri": "https://www.rubydoc.info/gems/open4/1.3.4",
  "mailing_list_uri": null,
  "source_code_uri": null,
  "bug_tracker_uri": null,
  "changelog_uri": null,
  "funding_uri": null
}