{
  "metadata": {
    "rubygems_mfa_required": "true"
  },
  "project_uri": "https://rubygems.org/gems/awrence",
  "gem_uri": "https://rubygems.org/gems/awrence-2.0.1.gem",
  "homepage_uri": "https://github.com/technicalpanda/awrence",
  "wiki_uri": null,
  "documentation_uri": "https://www.rubydoc.info/gems/awrence/2.0.1",
  "mailing_list_uri": null,
  "source_code_uri": null,
  "bug_tracker_uri": null,
  "changelog_uri": null,
  "funding_uri": null
}